pipelined-riscV/tb_top_riscV.vcd
$date
	Fri Aug  6 11:40:08 2021
$end
$version
	Icarus Verilog
$end
$timescale
	1s
$end
$scope module tb_top_riscV $end
$var wire 32 ! IMEM_addr_o [31:0] $end
$var wire 1 " DMEM_write_o $end
$var wire 1 # DMEM_read_o $end
$var wire 32 $ DMEM_data_o [31:0] $end
$var wire 32 % DMEM_addr_o [31:0] $end
$var reg 32 & DMEM_data_i [31:0] $end
$var reg 32 ' IMEM_data_i [31:0] $end
$var reg 1 ( clk $end
$var reg 1 ) reset_n $end
$scope module uut $end
$var wire 32 * DMEM_data_i [31:0] $end
$var wire 32 + IMEM_data_i [31:0] $end
$var wire 1 ( clk $end
$var wire 1 ) reset_n $end
$var wire 1 , forw_MEM_WB_rs2 $end
$var wire 1 - forw_MEM_WB_rs1 $end
$var wire 1 . forw_EX_MEM_rs2 $end
$var wire 1 / forw_EX_MEM_rs1 $end
$var wire 1 0 WB_reg_write $end
$var wire 32 1 WB_reg_data [31:0] $end
$var wire 5 2 WB_reg_addr [4:0] $end
$var wire 1 3 MEM_WB_write_reg $end
$var wire 1 4 MEM_WB_use_mem $end
$var wire 5 5 MEM_WB_rd [4:0] $end
$var wire 32 6 MEM_WB_alu_result [31:0] $end
$var wire 32 7 MEM_WB_DMEM_data [31:0] $end
$var wire 32 8 IMEM_addr_o [31:0] $end
$var wire 32 9 IF_ID_pc [31:0] $end
$var wire 32 : IF_ID_instruction [31:0] $end
$var wire 1 ; ID_EX_write_reg $end
$var wire 1 < ID_EX_write_mem $end
$var wire 1 = ID_EX_use_mem $end
$var wire 5 > ID_EX_rs2 [4:0] $end
$var wire 5 ? ID_EX_rs1 [4:0] $end
$var wire 1 @ ID_EX_read_mem $end
$var wire 5 A ID_EX_rd [4:0] $end
$var wire 32 B ID_EX_operand2 [31:0] $end
$var wire 32 C ID_EX_operand1 [31:0] $end
$var wire 32 D ID_EX_immediate [31:0] $end
$var wire 4 E ID_EX_aluOper [3:0] $end
$var wire 1 F EX_MEM_write_reg $end
$var wire 1 G EX_MEM_write_mem $end
$var wire 1 H EX_MEM_use_mem $end
$var wire 32 I EX_MEM_second_op [31:0] $end
$var wire 1 J EX_MEM_read_mem $end
$var wire 5 K EX_MEM_rd [4:0] $end
$var wire 32 L EX_MEM_alu_result [31:0] $end
$var wire 1 " DMEM_write_o $end
$var wire 1 # DMEM_read_o $end
$var wire 32 M DMEM_data_o [31:0] $end
$var wire 32 N DMEM_addr_o [31:0] $end
$var reg 1 O stall_if $end
$scope module inst_execute $end
$var wire 1 ( clk $end
$var wire 1 ) reset_n $end
$var wire 1 , use_MEM_WB_rs2_i $end
$var wire 1 - use_MEM_WB_rs1_i $end
$var wire 1 . use_EX_MEM_rs2_i $end
$var wire 1 / use_EX_MEM_rs1_i $end
$var wire 1 ; PIP_write_reg_i $end
$var wire 1 < PIP_write_mem_i $end
$var wire 1 = PIP_use_mem_i $end
$var wire 1 @ PIP_read_mem_i $end
$var wire 5 P PIP_rd_i [4:0] $end
$var wire 32 Q PIP_operand2_i [31:0] $end
$var wire 32 R PIP_operand1_i [31:0] $end
$var wire 32 S PIP_immediate_i [31:0] $end
$var wire 4 T PIP_aluOper_i [3:0] $end
$var wire 32 U MEM_WB_operand_i [31:0] $end
$var wire 32 V EX_MEM_operand_i [31:0] $end
$var reg 32 W PIP_alu_alu_result_o [31:0] $end
$var reg 5 X PIP_rd_o [4:0] $end
$var reg 1 J PIP_read_mem_o $end
$var reg 32 Y PIP_second_operand_o [31:0] $end
$var reg 1 H PIP_use_mem_o $end
$var reg 1 G PIP_write_mem_o $end
$var reg 1 F PIP_write_reg_o $end
$var reg 32 Z alu_result [31:0] $end
$var reg 32 [ operand1 [31:0] $end
$var reg 32 \ operand2 [31:0] $end
$upscope $end
$scope module inst_forward $end
$var wire 32 ] EX_MEM_alu_result_i [31:0] $end
$var wire 1 ^ EX_MEM_possible_forward $end
$var wire 5 _ EX_MEM_rd_i [4:0] $end
$var wire 1 F EX_MEM_write_reg_i $end
$var wire 1 ` MEM_WB_possible_forward $end
$var wire 1 / forward_EX_MEM_rs1_o $end
$var wire 1 . forward_EX_MEM_rs2_o $end
$var wire 1 - forward_MEM_WB_rs1_o $end
$var wire 1 , forward_MEM_WB_rs2_o $end
$var wire 1 3 MEM_WB_write_reg_i $end
$var wire 5 a MEM_WB_rd_i [4:0] $end
$var wire 5 b ID_EX_rs2_i [4:0] $end
$var wire 5 c ID_EX_rs1_i [4:0] $end
$upscope $end
$scope module inst_instruction_decode $end
$var wire 1 ( clk $end
$var wire 1 d id_stall_i $end
$var wire 32 e instruction [31:0] $end
$var wire 1 ) reset_n $end
$var wire 5 f rs2 [4:0] $end
$var wire 5 g rs1 [4:0] $end
$var wire 32 h regf_o2 [31:0] $end
$var wire 32 i regf_o1 [31:0] $end
$var wire 5 j rd [4:0] $end
$var wire 7 k opcode [6:0] $end
$var wire 32 l imm_u [31:0] $end
$var wire 32 m imm_s [31:0] $end
$var wire 32 n imm_j [31:0] $end
$var wire 32 o imm_i [31:0] $end
$var wire 32 p imm_b [31:0] $end
$var wire 7 q func7 [6:0] $end
$var wire 3 r func3 [2:0] $end
$var wire 1 0 PIP_rd_write_i $end
$var wire 32 s PIP_rd_data_i [31:0] $end
$var wire 5 t PIP_rd_addr_i [4:0] $end
$var wire 32 u PIP_pc_i [31:0] $end
$var wire 32 v PIP_instr_i [31:0] $end
$var reg 4 w PIP_aluOper_o [3:0] $end
$var reg 32 x PIP_immediate_o [31:0] $end
$var reg 32 y PIP_operand1_o [31:0] $end
$var reg 32 z PIP_operand2_o [31:0] $end
$var reg 5 { PIP_rd_o [4:0] $end
$var reg 1 @ PIP_read_mem_o $end
$var reg 5 | PIP_rs1_o [4:0] $end
$var reg 5 } PIP_rs2_o [4:0] $end
$var reg 1 = PIP_use_mem_o $end
$var reg 1 < PIP_write_mem_o $end
$var reg 1 ; PIP_write_reg_o $end
$var reg 4 ~ aluOper [3:0] $end
$var reg 1 !" aluSrc $end
$var reg 32 "" current_imm [31:0] $end
$var reg 1 #" isBranch $end
$var reg 1 $" is_imm $end
$var reg 1 %" memToReg $end
$var reg 1 &" readMem $end
$var reg 1 '" wb_use_mem $end
$var reg 1 (" writeMem $end
$var reg 1 )" writeReg $end
$scope module inst_reg_file $end
$var wire 1 ( clk $end
$var wire 32 *" data1_o [31:0] $end
$var wire 32 +" data2_o [31:0] $end
$var wire 1 ," is_write $end
$var wire 5 -" reg1_addr_i [4:0] $end
$var wire 5 ." reg2_addr_i [4:0] $end
$var wire 1 ) reset_n $end
$var wire 5 /" writereg_addr_i [4:0] $end
$var wire 1 0 data_write_i $end
$var wire 32 0" data_i [31:0] $end
$var reg 32 1" data1 [31:0] $end
$var reg 32 2" data2 [31:0] $end
$var integer 32 3" i [31:0] $end
$upscope $end
$upscope $end
$scope module inst_instruction_fetch $end
$var wire 32 4" IMEM_addr_o [31:0] $end
$var wire 32 5" IMEM_data_i [31:0] $end
$var wire 1 ( clk $end
$var wire 1 ) reset_n $end
$var wire 1 O stall_if_i $end
$var wire 32 6" start_addr_i [31:0] $end
$var reg 32 7" PIP_insruction_o [31:0] $end
$var reg 32 8" PIP_pc_o [31:0] $end
$var reg 32 9" current_pc [31:0] $end
$var reg 32 :" next_pc [31:0] $end
$upscope $end
$scope module inst_memory_rw $end
$var wire 32 ;" DMEM_addr_o [31:0] $end
$var wire 32 <" DMEM_data_i [31:0] $end
$var wire 32 =" DMEM_data_o [31:0] $end
$var wire 1 # DMEM_read_o $end
$var wire 1 " DMEM_write_o $end
$var wire 32 >" PIP_DMEM_data_o [31:0] $end
$var wire 32 ?" PIP_alu_result_i [31:0] $end
$var wire 5 @" PIP_rd_i [4:0] $end
$var wire 1 J PIP_read_mem_i $end
$var wire 32 A" PIP_second_operand_i [31:0] $end
$var wire 1 H PIP_use_mem_i $end
$var wire 1 G PIP_write_mem_i $end
$var wire 1 F PIP_write_reg_i $end
$var wire 1 ( clk $end
$var wire 1 ) reset_n $end
$var reg 32 B" PIP_alu_result_o [31:0] $end
$var reg 5 C" PIP_rd_o [4:0] $end
$var reg 1 4 PIP_use_mem_o $end
$var reg 1 3 PIP_write_reg_o $end
$upscope $end
$scope module inst_write_back $end
$var wire 32 D" PIP_DMEM_data_i [31:0] $end
$var wire 32 E" PIP_alu_result_i [31:0] $end
$var wire 5 F" PIP_rd_i [4:0] $end
$var wire 1 4 PIP_use_mem_i $end
$var wire 1 3 PIP_write_reg_i $end
$var wire 5 G" REG_addr_o [4:0] $end
$var wire 1 0 REG_write_o $end
$var wire 1 ( clk $end
$var wire 1 ) reset_n $end
$var wire 32 H" REG_data_o [31:0] $end
$upscope $end
$upscope $end
$upscope $end
$enddefinitions $end
#0
$dumpvars
bx H"
bx G"
bx F"
bx E"
bx D"
bx C"
bx B"
bx A"
bx @"
bx ?"
bx >"
bx ="
bx <"
bx ;"
bx :"
bx 9"
bx 8"
bx 7"
b0 6"
bx 5"
bx 4"
bx 3"
bx 2"
bx 1"
bx 0"
bx /"
bx ."
bx -"
x,"
bx +"
bx *"
0)"
0("
0'"
0&"
0%"
0$"
0#"
b0 ""
0!"
b0 ~
bx }
bx |
bx {
bx z
bx y
bx x
bx w
bx v
bx u
bx t
bx s
bx r
bx q
bx p
bx o
bx n
bx m
bx000000000000 l
bx k
bx j
bx i
bx h
bx g
bx f
bx e
0d
bx c
bx b
bx a
x`
bx _
x^
bx ]
bx \
bx [
bx Z
bx Y
bx X
bx W
bx V
bx U
bx T
bx S
bx R
bx Q
bx P
xO
bx N
bx M
bx L
bx K
xJ
bx I
xH
xG
xF
bx E
bx D
bx C
bx B
bx A
x@
bx ?
bx >
x=
x<
x;
bx :
bx 9
bx 8
bx 7
bx 6
bx 5
x4
x3
bx 2
bx 1
x0
x/
x.
x-
x,
bx +
bx *
x)
x(
bx '
bx &
bx %
bx $
x#
x"
bx !
$end
#11
1)
#21
0(
0)
#25
0-
0,
b0 h
b0 +"
b0 2"
b0 i
b0 *"
b0 1"
b0 k
b0 g
b0 -"
b0 f
b0 ."
b0 j
b0 r
b0 q
b0 o
b0 m
b0 p
b0 l
b0 n
b100 :"
b0 Z
0.
0/
0^
b0 \
b0 [
0,"
0`
b0 1
b0 U
b0 s
b0 0"
b0 H"
b0 e
b0 :
b0 v
b0 7"
b0 9
b0 u
b0 8"
b0 !
b0 8
b0 4"
b0 9"
0;
0=
0@
0<
b0 E
b0 T
b0 w
b0 D
b0 S
b0 x
b0 B
b0 Q
b0 z
b0 C
b0 R
b0 y
b0 A
b0 P
b0 {
b0 >
b0 b
b0 }
b0 ?
b0 c
b0 |
b0 K
b0 X
b0 _
b0 @"
0F
0H
b0 $
b0 M
b0 ="
b0 I
b0 Y
b0 A"
b0 %
b0 N
b0 ;"
b0 L
b0 V
b0 W
b0 ]
b0 ?"
0#
0J
0"
0G
b0 2
b0 t
b0 /"
b0 G"
b0 5
b0 a
b0 C"
b0 F"
b0 6
b0 B"
b0 E"
00
03
04
b0 7
b0 >"
b0 D"
b0 &
b0 *
b0 <"
b0 '
b0 +
b0 5"
b100000 3"
1(
#30
0(
#35
b100000 3"
1(
#40
0(
#41
1)
#45
1)"
1$"
b1111101000 ""
b10011 k
b1000 f
b1000 ."
b1 j
b11111 q
b1111101000 o
b1111100001 m
b10111110000 p
b111110100000000000000000000000 l
b111110100 n
b1000 :"
b111110100000000000000010010011 e
b111110100000000000000010010011 :
b111110100000000000000010010011 v
b111110100000000000000010010011 7"
b100 !
b100 8
b100 4"
b100 9"
b111110100000000000000010010011 '
b111110100000000000000010010011 +
b111110100000000000000010010011 5"
1(
#50
0(
#55
1)"
b11111010000 ""
1$"
b10000 f
b10000 ."
b10 j
b111110 q
b11111010000 o
b11111000010 m
b1111100001 p
b1111101000000000000000000000000 l
b1111101000 n
b1111101000 Z
b1111101000000000000000100010011 e
b1111101000000000000000100010011 :
b1111101000000000000000100010011 v
b1111101000000000000000100010011 7"
b1111101000 \
b1100 :"
b1111101000000000000000100010011 '
b1111101000000000000000100010011 +
b1111101000000000000000100010011 5"
1;
b1111101000 D
b1111101000 S
b1111101000 x
b1111101000 B
b1111101000 Q
b1111101000 z
b1 A
b1 P
b1 {
b1000 >
b1000 b
b1000 }
b100 9
b100 u
b100 8"
b1000 !
b1000 8
b1000 4"
b1000 9"
1(
#60
0(
#65
1)"
b1000000000000 ""
1$"
b11111010000 Z
b110111 k
b0 f
b0 ."
b11 j
b1 r
b0 q
b0 o
b11 m
b10000000001 p
b1000000000000 l
b100000000000 n
b10000 :"
1^
b11111010000 \
b1000110110111 e
b1000110110111 :
b1000110110111 v
b1000110110111 7"
b1000 9
b1000 u
b1000 8"
b1100 !
b1100 8
b1100 4"
b1100 9"
b11111010000 D
b11111010000 S
b11111010000 x
b11111010000 B
b11111010000 Q
b11111010000 z
b10 A
b10 P
b10 {
b10000 >
b10000 b
b10000 }
b1 K
b1 X
b1 _
b1 @"
1F
b1111101000 %
b1111101000 N
b1111101000 ;"
b1111101000 L
b1111101000 V
b1111101000 W
b1111101000 ]
b1111101000 ?"
b1000110110111 '
b1000110110111 +
b1000110110111 5"
1(
#70
0(
#75
1)"
b11111111111111111111111110100000 ""
1$"
b10011 k
b11 g
b11 -"
b0 r
b1111101 q
b11111111111111111111111110100000 o
b11111111111111111111111110100011 m
b11111111111111111111111111010001 p
b11111010000000011000000000000000 l
b11111111111110001100001111010000 n
b1000000000000 Z
b11111010000000011000000110010011 e
b11111010000000011000000110010011 :
b11111010000000011000000110010011 v
b11111010000000011000000110010011 7"
b1111101000 1
b1111101000 U
b1111101000 s
b1111101000 0"
b1111101000 H"
1,"
1`
b1000000000000 \
b10100 :"
b11111010000000011000000110010011 '
b11111010000000011000000110010011 +
b11111010000000011000000110010011 5"
b1 2
b1 t
b1 /"
b1 G"
b1 5
b1 a
b1 C"
b1 F"
b1111101000 6
b1111101000 B"
b1111101000 E"
10
13
b10 K
b10 X
b10 _
b10 @"
b11111010000 %
b11111010000 N
b11111010000 ;"
b11111010000 L
b11111010000 V
b11111010000 W
b11111010000 ]
b11111010000 ?"
b1000000000000 D
b1000000000000 S
b1000000000000 x
b1000000000000 B
b1000000000000 Q
b1000000000000 z
b11 A
b11 P
b11 {
b0 >
b0 b
b0 }
b1100 9
b1100 u
b1100 8"
b10000 !
b10000 8
b10000 4"
b10000 9"
1(
#80
0(
#85
b11111010000 i
b11111010000 *"
b11111010000 1"
1)"
b0 ""
0$"
b1000000000000 [
b111110100000 Z
b110011 k
b10 g
b10 -"
b100 f
b100 ."
b1 j
b0 q
b100 o
b1 m
b10000000000 p
b10000010000000000000000 l
b1000000000000010 n
b11000 :"
1/
b11111111111111111111111110100000 \
b11111010000 1
b11111010000 U
b11111010000 s
b11111010000 0"
b11111010000 H"
b10000010000000010110011 e
b10000010000000010110011 :
b10000010000000010110011 v
b10000010000000010110011 7"
b10000 9
b10000 u
b10000 8"
b10100 !
b10100 8
b10100 4"
b10100 9"
b11111111111111111111111110100000 D
b11111111111111111111111110100000 S
b11111111111111111111111110100000 x
b11111111111111111111111110100000 B
b11111111111111111111111110100000 Q
b11111111111111111111111110100000 z
b11 ?
b11 c
b11 |
b11 K
b11 X
b11 _
b11 @"
b1000000000000 %
b1000000000000 N
b1000000000000 ;"
b1000000000000 L
b1000000000000 V
b1000000000000 W
b1000000000000 ]
b1000000000000 ?"
b10 2
b10 t
b10 /"
b10 G"
b10 5
b10 a
b10 C"
b10 F"
b11111010000 6
b11111010000 B"
b11111010000 E"
b10000010000000010110011 '
b10000010000000010110011 +
b10000010000000010110011 5"
1(
#90
0(
#95
b0 i
b0 *"
b0 1"
1)"
b100 g
b100 -"
b101 f
b101 ."
b10 j
b101 o
b10 m
b1 p
b10100100000000000000000 l
b10000010000000010 n
b11111010000 Z
b10100100000000100110011 e
b10100100000000100110011 :
b10100100000000100110011 v
b10100100000000100110011 7"
b1000000000000 1
b1000000000000 U
b1000000000000 s
b1000000000000 0"
b1000000000000 H"
b0 \
b11111010000 [
0/
b11100 :"
b10100100000000100110011 '
b10100100000000100110011 +
b10100100000000100110011 5"
b11 2
b11 t
b11 /"
b11 G"
b11 5
b11 a
b11 C"
b11 F"
b1000000000000 6
b1000000000000 B"
b1000000000000 E"
b111110100000 %
b111110100000 N
b111110100000 ;"
b111110100000 L
b111110100000 V
b111110100000 W
b111110100000 ]
b111110100000 ?"
b0 D
b0 S
b0 x
b0 B
b0 Q
b0 z
b11111010000 C
b11111010000 R
b11111010000 y
b1 A
b1 P
b1 {
b100 >
b100 b
b100 }
b10 ?
b10 c
b10 |
b10100 9
b10100 u
b10100 8"
b11000 !
b11000 8
b11000 4"
b11000 9"
1(
#100
0(
#105
b111110100000 i
b111110100000 *"
b111110100000 1"
1)"
b0 Z
b11 g
b11 -"
b110 f
b110 ."
b1 j
b110 o
b1 m
b10000000000 p
b11000011000000000000000 l
b1100000000000011 n
b100000 :"
b0 [
b111110100000 1
b111110100000 U
b111110100000 s
b111110100000 0"
b111110100000 H"
b11000011000000010110011 e
b11000011000000010110011 :
b11000011000000010110011 v
b11000011000000010110011 7"
b11000 9
b11000 u
b11000 8"
b11100 !
b11100 8
b11100 4"
b11100 9"
b0 C
b0 R
b0 y
b10 A
b10 P
b10 {
b101 >
b101 b
b101 }
b100 ?
b100 c
b100 |
b1 K
b1 X
b1 _
b1 @"
b11111010000 %
b11111010000 N
b11111010000 ;"
b11111010000 L
b11111010000 V
b11111010000 W
b11111010000 ]
b11111010000 ?"
b111110100000 6
b111110100000 B"
b111110100000 E"
b11000011000000010110011 '
b11000011000000010110011 +
b11000011000000010110011 5"
1(
#110
0(
#115
bx h
bx +"
bx 2"
bx i
bx *"
bx 1"
0)"
bx k
bx g
bx -"
bx f
bx ."
bx j
bx r
bx q
bx o
bx m
bx p
bx000000000000 l
bx n
b111110100000 Z
bx e
bx :
bx v
bx 7"
b11111010000 1
b11111010000 U
b11111010000 s
b11111010000 0"
b11111010000 H"
b111110100000 [
b100100 :"
bx '
bx +
bx 5"
b1 2
b1 t
b1 /"
b1 G"
b1 5
b1 a
b1 C"
b1 F"
b11111010000 6
b11111010000 B"
b11111010000 E"
b10 K
b10 X
b10 _
b10 @"
b0 %
b0 N
b0 ;"
b0 L
b0 V
b0 W
b0 ]
b0 ?"
b111110100000 C
b111110100000 R
b111110100000 y
b1 A
b1 P
b1 {
b110 >
b110 b
b110 }
b11 ?
b11 c
b11 |
b11100 9
b11100 u
b11100 8"
b100000 !
b100000 8
b100000 4"
b100000 9"
1(
#120
0(
#125
bx Z
b101000 :"
x,
x.
x-
x/
bx \
bx [
b0 1
b0 U
b0 s
b0 0"
b0 H"
b100000 9
b100000 u
b100000 8"
b100100 !
b100100 8
b100100 4"
b100100 9"
0;
bx B
bx Q
bx z
bx C
bx R
bx y
bx A
bx P
bx {
bx >
bx b
bx }
bx ?
bx c
bx |
b1 K
b1 X
b1 _
b1 @"
b111110100000 %
b111110100000 N
b111110100000 ;"
b111110100000 L
b111110100000 V
b111110100000 W
b111110100000 ]
b111110100000 ?"
b10 2
b10 t
b10 /"
b10 G"
b10 5
b10 a
b10 C"
b10 F"
b0 6
b0 B"
b0 E"
1(
#130
0(
#135
0/
0.
b111110100000 1
b111110100000 U
b111110100000 s
b111110100000 0"
b111110100000 H"
0^
b101100 :"
b1 2
b1 t
b1 /"
b1 G"
b1 5
b1 a
b1 C"
b1 F"
b111110100000 6
b111110100000 B"
b111110100000 E"
bx K
bx X
bx _
bx @"
0F
bx %
bx N
bx ;"
bx L
bx V
bx W
bx ]
bx ?"
b100100 9
b100100 u
b100100 8"
b101000 !
b101000 8
b101000 4"
b101000 9"
1(
#140
0(
#145
0-
0,
b110000 :"
bx 1
bx U
bx s
bx 0"
bx H"
0,"
0`
b101000 9
b101000 u
b101000 8"
b101100 !
b101100 8
b101100 4"
b101100 9"
bx 2
bx t
bx /"
bx G"
bx 5
bx a
bx C"
bx F"
bx 6
bx B"
bx E"
00
03
1(
#150
0(
#155
b110100 :"
b101100 9
b101100 u
b101100 8"
b110000 !
b110000 8
b110000 4"
b110000 9"
1(
#160
0(
#165
b111000 :"
b110000 9
b110000 u
b110000 8"
b110100 !
b110100 8
b110100 4"
b110100 9"
1(
#170
0(
#175
b111100 :"
b110100 9
b110100 u
b110100 8"
b111000 !
b111000 8
b111000 4"
b111000 9"
1(
#180
0(
#185
b1000000 :"
b111000 9
b111000 u
b111000 8"
b111100 !
b111100 8
b111100 4"
b111100 9"
1(
#190
0(
#195
b1000100 :"
b111100 9
b111100 u
b111100 8"
b1000000 !
b1000000 8
b1000000 4"
b1000000 9"
1(
#200
0(
#205
b1001000 :"
b1000000 9
b1000000 u
b1000000 8"
b1000100 !
b1000100 8
b1000100 4"
b1000100 9"
1(
#210
0(
#215
b1001100 :"
b1000100 9
b1000100 u
b1000100 8"
b1001000 !
b1001000 8
b1001000 4"
b1001000 9"
1(
#220
0(
#225
b1010000 :"
b1001000 9
b1001000 u
b1001000 8"
b1001100 !
b1001100 8
b1001100 4"
b1001100 9"
1(
#230
0(
#235
b1010100 :"
b1001100 9
b1001100 u
b1001100 8"
b1010000 !
b1010000 8
b1010000 4"
b1010000 9"
1(
#240
0(
#245
b1011000 :"
b1010000 9
b1010000 u
b1010000 8"
b1010100 !
b1010100 8
b1010100 4"
b1010100 9"
1(
#250
0(
#255
b1011100 :"
b1010100 9
b1010100 u
b1010100 8"
b1011000 !
b1011000 8
b1011000 4"
b1011000 9"
1(
#260
0(
#265
b1100000 :"
b1011000 9
b1011000 u
b1011000 8"
b1011100 !
b1011100 8
b1011100 4"
b1011100 9"
1(
#270
0(
#275
b1100100 :"
b1011100 9
b1011100 u
b1011100 8"
b1100000 !
b1100000 8
b1100000 4"
b1100000 9"
1(
#280
0(
#285
b1101000 :"
b1100000 9
b1100000 u
b1100000 8"
b1100100 !
b1100100 8
b1100100 4"
b1100100 9"
1(
#290
0(
#295
b1101100 :"
b1100100 9
b1100100 u
b1100100 8"
b1101000 !
b1101000 8
b1101000 4"
b1101000 9"
1(
#300
0(
#305
b1110000 :"
b1101000 9
b1101000 u
b1101000 8"
b1101100 !
b1101100 8
b1101100 4"
b1101100 9"
1(
#310
0(
#315
b1110100 :"
b1101100 9
b1101100 u
b1101100 8"
b1110000 !
b1110000 8
b1110000 4"
b1110000 9"
1(
#320
0(
#325
b1111000 :"
b1110000 9
b1110000 u
b1110000 8"
b1110100 !
b1110100 8
b1110100 4"
b1110100 9"
1(
#330
0(
#335
b1111100 :"
b1110100 9
b1110100 u
b1110100 8"
b1111000 !
b1111000 8
b1111000 4"
b1111000 9"
1(
#340
0(
#345
b10000000 :"
b1111000 9
b1111000 u
b1111000 8"
b1111100 !
b1111100 8
b1111100 4"
b1111100 9"
1(
#350
0(
#355
b10000100 :"
b1111100 9
b1111100 u
b1111100 8"
b10000000 !
b10000000 8
b10000000 4"
b10000000 9"
1(
#360
0(
#365
b10001000 :"
b10000000 9
b10000000 u
b10000000 8"
b10000100 !
b10000100 8
b10000100 4"
b10000100 9"
1(
#370
0(
#375
b10001100 :"
b10000100 9
b10000100 u
b10000100 8"
b10001000 !
b10001000 8
b10001000 4"
b10001000 9"
1(
#380
0(
#385
b10010000 :"
b10001000 9
b10001000 u
b10001000 8"
b10001100 !
b10001100 8
b10001100 4"
b10001100 9"
1(
#390
0(
#395
b10010100 :"
b10001100 9
b10001100 u
b10001100 8"
b10010000 !
b10010000 8
b10010000 4"
b10010000 9"
1(
#400
0(
#405
b10011000 :"
b10010000 9
b10010000 u
b10010000 8"
b10010100 !
b10010100 8
b10010100 4"
b10010100 9"
1(
#410
0(
#415
b10011100 :"
b10010100 9
b10010100 u
b10010100 8"
b10011000 !
b10011000 8
b10011000 4"
b10011000 9"
1(
#420
0(
#425
b10100000 :"
b10011000 9
b10011000 u
b10011000 8"
b10011100 !
b10011100 8
b10011100 4"
b10011100 9"
1(
#430
0(
#435
b10100100 :"
b10011100 9
b10011100 u
b10011100 8"
b10100000 !
b10100000 8
b10100000 4"
b10100000 9"
1(
#440
0(
#445
b10101000 :"
b10100000 9
b10100000 u
b10100000 8"
b10100100 !
b10100100 8
b10100100 4"
b10100100 9"
1(
#450
0(
#455
b10101100 :"
b10100100 9
b10100100 u
b10100100 8"
b10101000 !
b10101000 8
b10101000 4"
b10101000 9"
1(
#460
0(
#465
b10110000 :"
b10101000 9
b10101000 u
b10101000 8"
b10101100 !
b10101100 8
b10101100 4"
b10101100 9"
1(
#470
0(
#475
b10110100 :"
b10101100 9
b10101100 u
b10101100 8"
b10110000 !
b10110000 8
b10110000 4"
b10110000 9"
1(
#480
0(
#485
b10111000 :"
b10110000 9
b10110000 u
b10110000 8"
b10110100 !
b10110100 8
b10110100 4"
b10110100 9"
1(
#490
0(
#495
b10111100 :"
b10110100 9
b10110100 u
b10110100 8"
b10111000 !
b10111000 8
b10111000 4"
b10111000 9"
1(
#500
0(
#505
b11000000 :"
b10111000 9
b10111000 u
b10111000 8"
b10111100 !
b10111100 8
b10111100 4"
b10111100 9"
1(
#510
0(
#515
b11000100 :"
b10111100 9
b10111100 u
b10111100 8"
b11000000 !
b11000000 8
b11000000 4"
b11000000 9"
1(
#520
0(
#525
b11001000 :"
b11000000 9
b11000000 u
b11000000 8"
b11000100 !
b11000100 8
b11000100 4"
b11000100 9"
1(
#530
0(
#535
b11001100 :"
b11000100 9
b11000100 u
b11000100 8"
b11001000 !
b11001000 8
b11001000 4"
b11001000 9"
1(
#540
0(
#545
b11010000 :"
b11001000 9
b11001000 u
b11001000 8"
b11001100 !
b11001100 8
b11001100 4"
b11001100 9"
1(
#550
0(
#555
b11010100 :"
b11001100 9
b11001100 u
b11001100 8"
b11010000 !
b11010000 8
b11010000 4"
b11010000 9"
1(
#560
0(
#565
b11011000 :"
b11010000 9
b11010000 u
b11010000 8"
b11010100 !
b11010100 8
b11010100 4"
b11010100 9"
1(
#570
0(
#575
b11011100 :"
b11010100 9
b11010100 u
b11010100 8"
b11011000 !
b11011000 8
b11011000 4"
b11011000 9"
1(
#580
0(
#585
b11100000 :"
b11011000 9
b11011000 u
b11011000 8"
b11011100 !
b11011100 8
b11011100 4"
b11011100 9"
1(
#590
0(
#595
b11100100 :"
b11011100 9
b11011100 u
b11011100 8"
b11100000 !
b11100000 8
b11100000 4"
b11100000 9"
1(
#600
0(
#605
b11101000 :"
b11100000 9
b11100000 u
b11100000 8"
b11100100 !
b11100100 8
b11100100 4"
b11100100 9"
1(
#610
0(
#615
b11101100 :"
b11100100 9
b11100100 u
b11100100 8"
b11101000 !
b11101000 8
b11101000 4"
b11101000 9"
1(
#620
0(
#625
b11110000 :"
b11101000 9
b11101000 u
b11101000 8"
b11101100 !
b11101100 8
b11101100 4"
b11101100 9"
1(
#630
0(
#635
b11110100 :"
b11101100 9
b11101100 u
b11101100 8"
b11110000 !
b11110000 8
b11110000 4"
b11110000 9"
1(
#640
0(
#645
b11111000 :"
b11110000 9
b11110000 u
b11110000 8"
b11110100 !
b11110100 8
b11110100 4"
b11110100 9"
1(
#650
0(
#655
b11111100 :"
b11110100 9
b11110100 u
b11110100 8"
b11111000 !
b11111000 8
b11111000 4"
b11111000 9"
1(
#660
0(
#665
b100000000 :"
b11111000 9
b11111000 u
b11111000 8"
b11111100 !
b11111100 8
b11111100 4"
b11111100 9"
1(
#670
0(
#675
b100000100 :"
b11111100 9
b11111100 u
b11111100 8"
b100000000 !
b100000000 8
b100000000 4"
b100000000 9"
1(
#680
0(
#685
b100001000 :"
b100000000 9
b100000000 u
b100000000 8"
b100000100 !
b100000100 8
b100000100 4"
b100000100 9"
1(
#690
0(
#695
b100001100 :"
b100000100 9
b100000100 u
b100000100 8"
b100001000 !
b100001000 8
b100001000 4"
b100001000 9"
1(
#700
0(
#705
b100010000 :"
b100001000 9
b100001000 u
b100001000 8"
b100001100 !
b100001100 8
b100001100 4"
b100001100 9"
1(
#710
0(
#715
b100010100 :"
b100001100 9
b100001100 u
b100001100 8"
b100010000 !
b100010000 8
b100010000 4"
b100010000 9"
1(
#720
0(
#725
b100011000 :"
b100010000 9
b100010000 u
b100010000 8"
b100010100 !
b100010100 8
b100010100 4"
b100010100 9"
1(
#730
0(
#735
b100011100 :"
b100010100 9
b100010100 u
b100010100 8"
b100011000 !
b100011000 8
b100011000 4"
b100011000 9"
1(
#740
0(
#745
b100100000 :"
b100011000 9
b100011000 u
b100011000 8"
b100011100 !
b100011100 8
b100011100 4"
b100011100 9"
1(
#750
0(
#755
b100100100 :"
b100011100 9
b100011100 u
b100011100 8"
b100100000 !
b100100000 8
b100100000 4"
b100100000 9"
1(
#760
0(
#765
b100101000 :"
b100100000 9
b100100000 u
b100100000 8"
b100100100 !
b100100100 8
b100100100 4"
b100100100 9"
1(
#770
0(
#775
b100101100 :"
b100100100 9
b100100100 u
b100100100 8"
b100101000 !
b100101000 8
b100101000 4"
b100101000 9"
1(
#780
0(
#785
b100110000 :"
b100101000 9
b100101000 u
b100101000 8"
b100101100 !
b100101100 8
b100101100 4"
b100101100 9"
1(
#790
0(
#795
b100110100 :"
b100101100 9
b100101100 u
b100101100 8"
b100110000 !
b100110000 8
b100110000 4"
b100110000 9"
1(
#800
0(
#805
b100111000 :"
b100110000 9
b100110000 u
b100110000 8"
b100110100 !
b100110100 8
b100110100 4"
b100110100 9"
1(
#810
0(
#815
b100111100 :"
b100110100 9
b100110100 u
b100110100 8"
b100111000 !
b100111000 8
b100111000 4"
b100111000 9"
1(
#820
0(
#825
b101000000 :"
b100111000 9
b100111000 u
b100111000 8"
b100111100 !
b100111100 8
b100111100 4"
b100111100 9"
1(
#830
0(
